<?xml version="1.0" encoding="UTF-8"?><!DOCTYPE svg PUBLIC "-//W3C//DTD SVG 1.1//EN" "http://www.w3.org/Graphics/SVG/1.1/DTD/svg11.dtd">
<svg xmlns="http://www.w3.org/2000/svg"
     version="1.1" width="24" height="24" viewBox="0 0 24 24"><path d="M9,9C10.29,9 11.5,9.41 12.47,10.11L17.58,5H13V3H21V11H19V6.41L13.89,11.5C14.59,12.5 15,13.7 15,15A6,6 0 0,1 9,21A6,6 0 0,1 3,15A6,6 0 0,1 9,9M9,11A4,4 0 0,0 5,15A4,4 0 0,0 9,19A4,4 0 0,0 13,15A4,4 0 0,0 9,11Z" /></svg>
